A Look at Suicide Rates Between 1985 and 2015
…
First were going to import some libraries that will allow us to work through our data:

knitr::opts_chunk$set(echo = TRUE)
library(readr)
library(tidyverse)
library(broom)

Obtaining the Data

We wouldnt be able to do anything very useful without any data to work with, so well start by grabbing the data we want to look at. Ive chosen a dataset from Kaggle, downloaded as a .csv (comma-separated value) file. This means that each entity/piece of data is stored as a set of attribute values separated by commas. We can use the read_csv function to bring our data into our workspace, and store it into an object:

suicide_info <- read_csv("~/Downloads/suicide_rates_1985_to_2016_master.csv")
suicide_info

## # A tibble: 27,820 x 12
##    country  year sex   age   suicides_no population `suicides/100k 
##    <chr>   <dbl> <chr> <chr>       <dbl>      <dbl>            <dbl>
##  1 Albania  1987 male  15-2          21     312900             6.71
##  2 Albania  1987 male  35-5          16     308000             5.19
##  3 Albania  1987 fema 15-2          14     289700             4.83
##  4 Albania  1987 male  75+            1      21800             4.59
##  5 Albania  1987 male  25-3           9     274300             3.28
##  6 Albania  1987 fema 75+            1      35600             2.81
##  7 Albania  1987 fema 35-5           6     278800             2.15
##  8 Albania  1987 fema 25-3           4     257200             1.56
##  9 Albania  1987 male  55-7           1     137500             0.73
## 10 Albania  1987 fema 5-14           0     311000             0   
## #  with 27,810 more rows, and 5 more variables: `country-year` <chr>,
## #   `HDI for year` <dbl>, `gdp_for_year ($)` <dbl>, `gdp_per_capita
## #   ($)` <dbl>, generation <chr>
…
In addition to holding two attirbutes in one column, the country-year column seems a bit redundant since we already have two separate columns for year and country. Also, there isnt enough information for the yearly HDI to use for each country. We do not make any use of the generation attribute, as we are only looking at age, sex, and gdp as our attributes of interest. As such, well exclude these columns from our table.

suicide_info <- suicide_info %>%
  select(-`country-year`, -`HDI for year`, -generation) %>%
  rename(GDP_per_capita = `gdp_per_capita ($)`, 
         GDP_for_year = `gdp_for_year ($)`,
         suicides_per_100k = `suicides/100k pop`)

# So that the ages would be listed in order...
suicide_info$age <- factor(suicide_info$age, levels = c("5-14 years", "15-24 years", "25-34 years", "35-54 years", "55-74 years", "75+ years"))

suicide_info

## # A tibble: 27,820 x 9
##    country  year sex   age   suicides_no population suicides_per_10
##    <chr>   <dbl> <chr> <fct>       <dbl>      <dbl>            <dbl>
##  1 Albania  1987 male  15-2          21     312900             6.71
##  2 Albania  1987 male  35-5          16     308000             5.19
##  3 Albania  1987 fema 15-2          14     289700             4.83
##  4 Albania  1987 male  75+            1      21800             4.59
##  5 Albania  1987 male  25-3           9     274300             3.28
##  6 Albania  1987 fema 75+            1      35600             2.81
##  7 Albania  1987 fema 35-5           6     278800             2.15
##  8 Albania  1987 fema 25-3           4     257200             1.56
##  9 Albania  1987 male  55-7           1     137500             0.73
## 10 Albania  1987 fema 5-14           0     311000             0   
## #  with 27,810 more rows, and 2 more variables: GDP_for_year <dbl>,
## #   GDP_per_capita <dbl>

Exploring Our Data

Now that our data is a little cleaner, were going to see if we can identify any trends or patterns between suicide rates and certain attributes. Lets look at the U.S. first and visualize how the rate of suicide (i.e.suicides_no/population) compares for the different age groups between 1985 and 2016:

usa_rates <- suicide_info %>%
  filter(country == "United States")

usa_rates

## # A tibble: 372 x 9
##    country  year sex   age   suicides_no population suicides_per_10
##    <chr>   <dbl> <chr> <fct>       <dbl>      <dbl>            <dbl>
##  1 United  1985 male  75+         2177    4064000            53.6 
##  2 United  1985 male  55-7        5302   17971000            29.5 
##  3 United  1985 male  25-3        5134   20986000            24.5 
##  4 United  1985 male  35-5        6053   26589000            22.8 
##  5 United  1985 male  15-2        4267   19962000            21.4 
##  6 United  1985 fema 35-5        2105   27763000             7.58
##  7 United  1985 fema 55-7        1568   21366000             7.34
##  8 United  1985 fema 75+          466    7469000             6.24
##  9 United  1985 fema 25-3        1242   21041000             5.9 
## 10 United  1985 fema 15-2         854   19589000             4.36
## #  with 362 more rows, and 2 more variables: GDP_for_year <dbl>,
## #   GDP_per_capita <dbl>
…
This is not what I might have expected to see, but is it interesting to come out with. The rates of suicide are much higher for a much lower GDP in the US, and then they drop significantly for the more intermediate GDP amounts. This suggest that the more the population produces, the fewer suicides tend to have occurred. But then there is dramatic uptick in suicides as the GDP continues to increase. One might have thought that wealth would be better associated with fewer suicides. At least in the United States, this does not appear to be the case.

Hypothesis Testing (GDP and Suicide Rates)

I am extremely hesitant to include this portion of my tutorial because the dataset does not include a significant part of the population. Russia and hundreds of other countries have been excluded from this dataset, and for this reason, I do not believe it is representative of the entire population. This is also a good part of the reason why, in the prior sections, I focused on analyzing one specific country, because I had more confidence in how the data provided represented its specific countries than for the world as a whole.

Even so, it might be interesting to try to go further and see if we can determine between wealthier countries and the rate of suicides (suicide/100k). Perhaps richer countries tend to have lower rates of suicide. To do this, we can apply hypothesis testing to our analysis. We may also want to look at this on a global scale, so well first gather some data regarding all the countries in our dataset, namely average GDP per capita of each country, and average rate of suicide. Our null hypothesis will be that a higher GDP does not have any association or relation with a lower suicide rate.

tmp <- suicide_info %>%
  group_by(country) %>%
  summarize(avg_GDP_per_capita = mean(GDP_per_capita), avg_suicide_rate = mean(suicides_per_100k))

tmp

## # A tibble: 101 x 3
##    country             avg_GDP_per_capita avg_suicide_rate
##    <chr>                            <dbl>            <dbl>
##  1 Albania                          1859.            3.50 
##  2 Antigua and Barbuda             10448.            0.553
##  3 Argentina                        7914.           10.5  
##  4 Armenia                          1874.            3.28 
##  5 Aruba                           24222.            9.50 
##  6 Australia                       32776.           13.0  
##  7 Austria                         34262.           23.8  
##  8 Azerbaijan                       1005.            1.86 
##  9 Bahamas                         25836.            1.25 
## 10 Bahrain                         18040.            1.85 
## #  with 91 more rows
…
